,0,addi 4 16 4,,
,1,seti 1 7 2,set r2 = 1,"r2 = 1, outer loop"
,2,seti 1 1 5,set r5 = 1,"r5 = 1, inner loop"
,3,mulr 2 5 3,r3 = r2 * r5,
,4,eqrr 3 1 3,r3 = true if r3 == r1,"this is the key, we're checking to see if the two iterators multiplied == the r2"
,5,addr 3 4 4,"if above is true, keep going",
,6,addi 4 1 4,skip thsi line?,
,7,addr 2 0 0,r0 = r0 + r2,
,8,addi 5 1 5,r5 = r5 + 1,
,9,gtrr 5 1 3,"if r5 > r1, r3 = 1 else r3 = 0",
,10,addr 4 3 4,r4 = r3 + r4,
,11,seti 2 7 4,go to  3,
,12,addi 2 1 2,r2 = r2 + 1,
,13,gtrr 2 1 3,if r2 > r1 r3 = true,
,14,addr 3 4 4,r4 = 14 + r3,
,15,seti 1 3 4,goto 2,This whole section is a double for loop checking for factors of the number given below
,16,mulr 4 4 4,go to 16 * 4 (64 > 35 == HALT!),
,17,addi 1 2 1,r1 = r1 + 2,
,18,mulr 1 1 1,r1 = r1 * r1,
,19,mulr 4 1 1,r1 = r1 * 19,
,20,muli 1 11 1,r1 = r1 * 11,
,21,addi 3 3 3,r3 = r3 + 3,
,22,mulr 3 4 3,r3 = r3 * 22,
,23,addi 3 9 3,r3 = r3 + 9,
,24,addr 1 3 1,r1 = r1 + r3,this whole sequence is r1 == 2 * 2 * 19 * 11 + 3 * 22 + 9 = 911
,25,addr 4 0 4,r4 = r0 + r4,
,26,seti 0 1 4,if r0 == 0 go to 1,
,27,setr 4 9 3,r3 = 27,
,28,mulr 3 4 3,r3 = r3 * 28,
,29,addr 4 3 3,r3 = r3 + 29,
,30,mulr 4 3 3,r3 = r3 * 30,
,31,muli 3 14 3,r3 = r3 * 14,
,32,mulr 3 4 3,r3 = r3 * 32,
,33,addr 1 3 1,r1 = r1 + r3,this whole sequence is r1 = 911 + (27 * 28 + 29) * 30 * 14 * 32 = 10551311
,34,seti 0 6 0,r0 = 0,
,35,seti 0 7 4,go to 1,